section2_fifo/section2_a3_log.txt
[2024-10-29 17:05:57 UTC] vlib work && vlog '-timescale' '1ns/1ns' design.sv testbench.sv  && vsim -c -do "vsim +access+r; run -all; exit"  
VSIMSA: Configuration file changed: `/home/runner/library.cfg'
ALIB: Library "work" attached.
work = /home/runner/work/work.lib
MESSAGE "Unit top modules: tb."
SUCCESS "Compile success 0 Errors 0 Warnings  Analysis time: 0[s]."
done
# Aldec, Inc. Riviera-PRO version 2023.04.112.8911 built for Linux64 on May 12, 2023.
# HDL, SystemC, and Assertions simulator, debugger, and design environment.
# (c) 1999-2023 Aldec, Inc. All rights reserved.
# ELBREAD: Elaboration process.
# ELBREAD: Elaboration time 0.0 [s].
# KERNEL: Main thread initiated.
# KERNEL: Kernel process initialization phase.
# ELAB2: Elaboration final pass...
# ELAB2: Create instances ...
# KERNEL: Time resolution set to 1ns.
# ELAB2: Create instances complete.
# SLP: Started
# SLP: Elaboration phase ...
# SLP: Elaboration phase ... done : 0.0 [s]
# SLP: Generation phase ...
# SLP: Generation phase ... done : 0.1 [s]
# SLP: Finished : 0.1 [s]
# SLP: 0 primitives and 4 (80.00%) other processes in SLP
# SLP: 6 (1.61%) signals in SLP and 22 (5.90%) interface signals
# ELAB2: Elaboration final pass complete - time: 0.2 [s].
# KERNEL: SLP loading done - time: 0.0 [s].
# KERNEL: Warning: You are using the Riviera-PRO EDU Edition. The performance of simulation is reduced.
# KERNEL: Warning: Contact Aldec for available upgrade options - sales@aldec.com.
# KERNEL: SLP simulation initialization done - time: 0.0 [s].
# KERNEL: Kernel process initialization done.
# Allocation: Simulator allocated 5594 kB (elbread=459 elab2=4969 kernel=165 sdf=0)
# KERNEL: ASDB file was created in location /home/runner/dataset.asdb
# KERNEL: ----------------------------------------
# KERNEL: [DRV] : DUT RESET DONE
# KERNEL: ----------------------------------------
# KERNEL: [GEN] : Oper : 0 Iteration :           1
# KERNEL: [DRV] : DATA WRITE data : 2
# KERNEL: [MON] : wr : 1 rd : 0 din : 2 dout : 0 empty : 1 full : 0
# KERNEL: [SCO] : wr : 1 rd : 0 din : 2 dout : 0 empty : 1 full : 0
# KERNEL: [SCO] : DATA STORED IN QUEUE : 2
# KERNEL: ----------------------------------------
# KERNEL: [GEN] : Oper : 0 Iteration :           2
# KERNEL: [DRV] : DATA WRITE data : 7
# KERNEL: [MON] : wr : 1 rd : 0 din : 7 dout : 0 empty : 0 full : 0
# KERNEL: [SCO] : wr : 1 rd : 0 din : 7 dout : 0 empty : 0 full : 0
# KERNEL: [SCO] : DATA STORED IN QUEUE : 7
# KERNEL: ----------------------------------------
# KERNEL: [GEN] : Oper : 0 Iteration :           3
# KERNEL: [DRV] : DATA WRITE data : 9
# KERNEL: [MON] : wr : 1 rd : 0 din : 9 dout : 0 empty : 0 full : 0
# KERNEL: [SCO] : wr : 1 rd : 0 din : 9 dout : 0 empty : 0 full : 0
# KERNEL: [SCO] : DATA STORED IN QUEUE : 9
# KERNEL: ----------------------------------------
# KERNEL: [GEN] : Oper : 0 Iteration :           4
# KERNEL: [DRV] : DATA WRITE data : 7
# KERNEL: [MON] : wr : 1 rd : 0 din : 7 dout : 0 empty : 0 full : 0
# KERNEL: [SCO] : wr : 1 rd : 0 din : 7 dout : 0 empty : 0 full : 0
# KERNEL: [SCO] : DATA STORED IN QUEUE : 7
# KERNEL: ----------------------------------------
# KERNEL: [GEN] : Oper : 0 Iteration :           5
# KERNEL: [DRV] : DATA WRITE data : 2
# KERNEL: [MON] : wr : 1 rd : 0 din : 2 dout : 0 empty : 0 full : 0
# KERNEL: [SCO] : wr : 1 rd : 0 din : 2 dout : 0 empty : 0 full : 0
# KERNEL: [SCO] : DATA STORED IN QUEUE : 2
# KERNEL: ----------------------------------------
# KERNEL: [GEN] : Oper : 0 Iteration :           6
# KERNEL: [DRV] : DATA WRITE data : 10
# KERNEL: [MON] : wr : 1 rd : 0 din : 10 dout : 0 empty : 0 full : 0
# KERNEL: [SCO] : wr : 1 rd : 0 din : 10 dout : 0 empty : 0 full : 0
# KERNEL: [SCO] : DATA STORED IN QUEUE : 10
# KERNEL: ----------------------------------------
# KERNEL: [GEN] : Oper : 0 Iteration :           7
# KERNEL: [DRV] : DATA WRITE data : 5
# KERNEL: [MON] : wr : 1 rd : 0 din : 5 dout : 0 empty : 0 full : 0
# KERNEL: [SCO] : wr : 1 rd : 0 din : 5 dout : 0 empty : 0 full : 0
# KERNEL: [SCO] : DATA STORED IN QUEUE : 5
# KERNEL: ----------------------------------------
# KERNEL: [GEN] : Oper : 0 Iteration :           8
# KERNEL: [DRV] : DATA WRITE data : 2
# KERNEL: [MON] : wr : 1 rd : 0 din : 2 dout : 0 empty : 0 full : 0
# KERNEL: [SCO] : wr : 1 rd : 0 din : 2 dout : 0 empty : 0 full : 0
# KERNEL: [SCO] : DATA STORED IN QUEUE : 2
# KERNEL: ----------------------------------------
# KERNEL: [GEN] : Oper : 0 Iteration :           9
# KERNEL: [DRV] : DATA WRITE data : 1
# KERNEL: [MON] : wr : 1 rd : 0 din : 1 dout : 0 empty : 0 full : 0
# KERNEL: [SCO] : wr : 1 rd : 0 din : 1 dout : 0 empty : 0 full : 0
# KERNEL: [SCO] : DATA STORED IN QUEUE : 1
# KERNEL: ----------------------------------------
# KERNEL: [GEN] : Oper : 0 Iteration :          10
# KERNEL: [DRV] : DATA WRITE data : 9
# KERNEL: [MON] : wr : 1 rd : 0 din : 9 dout : 0 empty : 0 full : 0
# KERNEL: [SCO] : wr : 1 rd : 0 din : 9 dout : 0 empty : 0 full : 0
# KERNEL: [SCO] : DATA STORED IN QUEUE : 9
# KERNEL: ----------------------------------------
# KERNEL: [GEN] : Oper : 0 Iteration :          11
# KERNEL: [DRV] : DATA WRITE data : 5
# KERNEL: [MON] : wr : 1 rd : 0 din : 5 dout : 0 empty : 0 full : 0
# KERNEL: [SCO] : wr : 1 rd : 0 din : 5 dout : 0 empty : 0 full : 0
# KERNEL: [SCO] : DATA STORED IN QUEUE : 5
# KERNEL: ----------------------------------------
# KERNEL: [GEN] : Oper : 0 Iteration :          12
# KERNEL: [DRV] : DATA WRITE data : 9
# KERNEL: [MON] : wr : 1 rd : 0 din : 9 dout : 0 empty : 0 full : 0
# KERNEL: [SCO] : wr : 1 rd : 0 din : 9 dout : 0 empty : 0 full : 0
# KERNEL: [SCO] : DATA STORED IN QUEUE : 9
# KERNEL: ----------------------------------------
# KERNEL: [GEN] : Oper : 0 Iteration :          13
# KERNEL: [DRV] : DATA WRITE data : 6
# KERNEL: [MON] : wr : 1 rd : 0 din : 6 dout : 0 empty : 0 full : 0
# KERNEL: [SCO] : wr : 1 rd : 0 din : 6 dout : 0 empty : 0 full : 0
# KERNEL: [SCO] : DATA STORED IN QUEUE : 6
# KERNEL: ----------------------------------------
# KERNEL: [GEN] : Oper : 0 Iteration :          14
# KERNEL: [DRV] : DATA WRITE data : 2
# KERNEL: [MON] : wr : 1 rd : 0 din : 2 dout : 0 empty : 0 full : 0
# KERNEL: [SCO] : wr : 1 rd : 0 din : 2 dout : 0 empty : 0 full : 0
# KERNEL: [SCO] : DATA STORED IN QUEUE : 2
# KERNEL: ----------------------------------------
# KERNEL: [GEN] : Oper : 0 Iteration :          15
# KERNEL: [DRV] : DATA WRITE data : 8
# KERNEL: [MON] : wr : 1 rd : 0 din : 8 dout : 0 empty : 0 full : 0
# KERNEL: [SCO] : wr : 1 rd : 0 din : 8 dout : 0 empty : 0 full : 0
# KERNEL: [SCO] : DATA STORED IN QUEUE : 8
# KERNEL: ----------------------------------------
# KERNEL: [GEN] : Oper : 0 Iteration :          16
# KERNEL: [DRV] : DATA WRITE data : 3
# KERNEL: [MON] : wr : 1 rd : 0 din : 3 dout : 0 empty : 0 full : 0
# KERNEL: [SCO] : wr : 1 rd : 0 din : 3 dout : 0 empty : 0 full : 0
# KERNEL: [SCO] : DATA STORED IN QUEUE : 3
# KERNEL: ----------------------------------------
# KERNEL: [GEN] : Oper : 0 Iteration :          17
# KERNEL: [DRV] : DATA WRITE data : 3
# KERNEL: [MON] : wr : 1 rd : 0 din : 3 dout : 0 empty : 0 full : 1
# KERNEL: [SCO] : wr : 1 rd : 0 din : 3 dout : 0 empty : 0 full : 1
# KERNEL: [SCO] : FIFO IS FULL
# KERNEL: ----------------------------------------
# KERNEL: [GEN] : Oper : 0 Iteration :          18
# KERNEL: [DRV] : DATA READ
# KERNEL: [MON] : wr : 0 rd : 1 din : 3 dout : 2 empty : 0 full : 1
# KERNEL: [SCO] : wr : 0 rd : 1 din : 3 dout : 2 empty : 0 full : 1
# KERNEL: [SCO] : DATA MATCH
# KERNEL: ----------------------------------------
# KERNEL: [GEN] : Oper : 0 Iteration :          19
# KERNEL: [DRV] : DATA READ
# KERNEL: [MON] : wr : 0 rd : 1 din : 3 dout : 7 empty : 0 full : 0
# KERNEL: [SCO] : wr : 0 rd : 1 din : 3 dout : 7 empty : 0 full : 0
# KERNEL: [SCO] : DATA MATCH
# KERNEL: ----------------------------------------
# KERNEL: [GEN] : Oper : 0 Iteration :          20
# KERNEL: [DRV] : DATA READ
# KERNEL: [MON] : wr : 0 rd : 1 din : 3 dout : 9 empty : 0 full : 0
# KERNEL: [SCO] : wr : 0 rd : 1 din : 3 dout : 9 empty : 0 full : 0
# KERNEL: [SCO] : DATA MATCH
# KERNEL: ----------------------------------------
# KERNEL: [GEN] : Oper : 0 Iteration :          21
# KERNEL: [DRV] : DATA READ
# KERNEL: [MON] : wr : 0 rd : 1 din : 3 dout : 7 empty : 0 full : 0
# KERNEL: [SCO] : wr : 0 rd : 1 din : 3 dout : 7 empty : 0 full : 0
# KERNEL: [SCO] : DATA MATCH
# KERNEL: ----------------------------------------
# KERNEL: [GEN] : Oper : 0 Iteration :          22
# KERNEL: [DRV] : DATA READ
# KERNEL: [MON] : wr : 0 rd : 1 din : 3 dout : 2 empty : 0 full : 0
# KERNEL: [SCO] : wr : 0 rd : 1 din : 3 dout : 2 empty : 0 full : 0
# KERNEL: [SCO] : DATA MATCH
# KERNEL: ----------------------------------------
# KERNEL: [GEN] : Oper : 0 Iteration :          23
# KERNEL: [DRV] : DATA READ
# KERNEL: [MON] : wr : 0 rd : 1 din : 3 dout : 10 empty : 0 full : 0
# KERNEL: [SCO] : wr : 0 rd : 1 din : 3 dout : 10 empty : 0 full : 0
# KERNEL: [SCO] : DATA MATCH
# KERNEL: ----------------------------------------
# KERNEL: [GEN] : Oper : 0 Iteration :          24
# KERNEL: [DRV] : DATA READ
# KERNEL: [MON] : wr : 0 rd : 1 din : 3 dout : 5 empty : 0 full : 0
# KERNEL: [SCO] : wr : 0 rd : 1 din : 3 dout : 5 empty : 0 full : 0
# KERNEL: [SCO] : DATA MATCH
# KERNEL: ----------------------------------------
# KERNEL: [GEN] : Oper : 0 Iteration :          25
# KERNEL: [DRV] : DATA READ
# KERNEL: [MON] : wr : 0 rd : 1 din : 3 dout : 2 empty : 0 full : 0
# KERNEL: [SCO] : wr : 0 rd : 1 din : 3 dout : 2 empty : 0 full : 0
# KERNEL: [SCO] : DATA MATCH
# KERNEL: ----------------------------------------
# KERNEL: [GEN] : Oper : 0 Iteration :          26
# KERNEL: [DRV] : DATA READ
# KERNEL: [MON] : wr : 0 rd : 1 din : 3 dout : 1 empty : 0 full : 0
# KERNEL: [SCO] : wr : 0 rd : 1 din : 3 dout : 1 empty : 0 full : 0
# KERNEL: [SCO] : DATA MATCH
# KERNEL: ----------------------------------------
# KERNEL: [GEN] : Oper : 0 Iteration :          27
# KERNEL: [DRV] : DATA READ
# KERNEL: [MON] : wr : 0 rd : 1 din : 3 dout : 9 empty : 0 full : 0
# KERNEL: [SCO] : wr : 0 rd : 1 din : 3 dout : 9 empty : 0 full : 0
# KERNEL: [SCO] : DATA MATCH
# KERNEL: ----------------------------------------
# KERNEL: [GEN] : Oper : 0 Iteration :          28
# KERNEL: [DRV] : DATA READ
# KERNEL: [MON] : wr : 0 rd : 1 din : 3 dout : 5 empty : 0 full : 0
# KERNEL: [SCO] : wr : 0 rd : 1 din : 3 dout : 5 empty : 0 full : 0
# KERNEL: [SCO] : DATA MATCH
# KERNEL: ----------------------------------------
# KERNEL: [GEN] : Oper : 0 Iteration :          29
# KERNEL: [DRV] : DATA READ
# KERNEL: [MON] : wr : 0 rd : 1 din : 3 dout : 9 empty : 0 full : 0
# KERNEL: [SCO] : wr : 0 rd : 1 din : 3 dout : 9 empty : 0 full : 0
# KERNEL: [SCO] : DATA MATCH
# KERNEL: ----------------------------------------
# KERNEL: [GEN] : Oper : 0 Iteration :          30
# KERNEL: [DRV] : DATA READ
# KERNEL: [MON] : wr : 0 rd : 1 din : 3 dout : 6 empty : 0 full : 0
# KERNEL: [SCO] : wr : 0 rd : 1 din : 3 dout : 6 empty : 0 full : 0
# KERNEL: [SCO] : DATA MATCH
# KERNEL: ----------------------------------------
# KERNEL: [GEN] : Oper : 0 Iteration :          31
# KERNEL: [DRV] : DATA READ
# KERNEL: [MON] : wr : 0 rd : 1 din : 3 dout : 2 empty : 0 full : 0
# KERNEL: [SCO] : wr : 0 rd : 1 din : 3 dout : 2 empty : 0 full : 0
# KERNEL: [SCO] : DATA MATCH
# KERNEL: ----------------------------------------
# KERNEL: [GEN] : Oper : 0 Iteration :          32
# KERNEL: [DRV] : DATA READ
# KERNEL: [MON] : wr : 0 rd : 1 din : 3 dout : 8 empty : 0 full : 0
# KERNEL: [SCO] : wr : 0 rd : 1 din : 3 dout : 8 empty : 0 full : 0
# KERNEL: [SCO] : DATA MATCH
# KERNEL: ----------------------------------------
# KERNEL: [GEN] : Oper : 0 Iteration :          33
# KERNEL: [DRV] : DATA READ
# KERNEL: [MON] : wr : 0 rd : 1 din : 3 dout : 3 empty : 0 full : 0
# KERNEL: [SCO] : wr : 0 rd : 1 din : 3 dout : 3 empty : 0 full : 0
# KERNEL: [SCO] : DATA MATCH
# KERNEL: ----------------------------------------
# KERNEL: [GEN] : Oper : 0 Iteration :          34
# KERNEL: [DRV] : DATA READ
# KERNEL: [MON] : wr : 0 rd : 1 din : 3 dout : 3 empty : 1 full : 0
# KERNEL: [SCO] : wr : 0 rd : 1 din : 3 dout : 3 empty : 1 full : 0
# KERNEL: [SCO] : FIFO IS EMPTY
# RUNTIME: Info: RUNTIME_0068 testbench.sv (268): $finish called.
# KERNEL: Time: 2150 ns,  Iteration: 1,  Instance: /environment,  Process: @INTERNAL#336_3@.
# KERNEL: stopped at time: 2150 ns
# VSIM: Simulation has finished. There are no more test vectors to simulate.
# VSIM: Simulation has finished.
Done